Decision Trees Quarto - Enhanced Analysis
…
[1] "=== Airline-Route Pricing Strategy Analysis ==="

# A tibble: 29 × 9
# Groups:   Airline [8]
   Airline     airport_code_arrival avg_price price_sd count min_price max_price
   <chr>       <chr>                    <dbl>    <dbl> <int>     <dbl>     <dbl>
 1 Jet Airways COK                     12674.    2894.  1243      4256     21954
 2 Jet Airways BLR                     11733.    2325.  1016      5608     15149
 3 Jet Airways DEL                     11046.    6845.   585      3359     54826
 4 Multiple c… COK                     10954.    3760.   966      5797     34608
 5 Air India   BLR                     10363.    3474.   393      4145     31945
 6 Air India   COK                     10002.    3248.   598      4487     28322
 7 Air India   DEL                      9271.    4658.   264      3758     31783
 8 Vistara     BLR                      9230.    1348.   147      7770     16932
 9 Air Asia    COK                      7812.    2109.    67      6151     13774
10 Vistara     CCU                      7579.    3982.    37      3687     11982
11 IndiGo      COK                      7282.    2301.   567      4729     16162
12 GoAir       COK                      6681.    3102.    64      3876     22794
13 Jet Airways HYD                      6581.    4637.   173      1840     24210
14 Vistara     COK                      6516.    1078.    35      5586     12411
15 Vistara     DEL                      6125.    2821.   145      4353     21730
# ℹ 14 more rows
# ℹ 2 more variables: price_range <dbl>, cv_price <dbl>
…
